{
	"info": {
		"_postman_id": "ea4445fe-b9f8-4058-b7dc-665c92484d4c",
		"name": "apitest",
		"schema": "https://schema.getpostman.com/json/collection/v2.1.0/collection.json"
	},
	"item": [
		{
			"name": "userSignUp",
			"request": {
				"method": "POST",
				"header": [],
				"body": {
					"mode": "formdata",
					"formdata": [
						{
							"key": "name",
							"value": "Tushar Savsaviya",
							"type": "text"
						},
						{
							"key": "email",
							"value": "ts@mail.in",
							"type": "text"
						},
						{
							"key": "password",
							"value": "147852369",
							"type": "text"
						},
						{
							"key": "attachment",
							"type": "file",
							"src": "/E:/Practicals/css/wow/img/6.jpg"
						}
					]
				},
				"url": {
					"raw": "http://localhost:5000/user/userSignUp",
					"protocol": "http",
					"host": [
						"localhost"
					],
					"port": "5000",
					"path": [
						"user",
						"userSignUp"
					]
				}
			},
			"response": []
		},
		{
			"name": "userLogin",
			"request": {
				"method": "POST",
				"header": [],
				"body": {
					"mode": "raw",
					"raw": "{\r\n    \"email\":\"ts@mail.in\",\r\n    \"password\":\"147852369\"\r\n}",
					"options": {
						"raw": {
							"language": "json"
						}
					}
				},
				"url": {
					"raw": "http://localhost:5000/user/userLogin",
					"protocol": "http",
					"host": [
						"localhost"
					],
					"port": "5000",
					"path": [
						"user",
						"userLogin"
					]
				}
			},
			"response": []
		},
		{
			"name": "getUserDetails",
			"request": {
				"method": "POST",
				"header": [
					{
						"key": "Authorization",
						"value": "bearer eyJhbGciOiJIUzI1NiIsInR5cCI6IkpXVCJ9.eyJlbWFpbCI6InRzQG1haWwuaW4iLCJpYXQiOjE2MzA0ODE4MDV9.mgwvAe0--eqnTIhzq_dMato0BLjzZ5rPfSAW1B-zJvA",
						"type": "text"
					}
				],
				"body": {
					"mode": "raw",
					"raw": "",
					"options": {
						"raw": {
							"language": "json"
						}
					}
				},
				"url": {
					"raw": "http://localhost:5000/user/getUserDetails",
					"protocol": "http",
					"host": [
						"localhost"
					],
					"port": "5000",
					"path": [
						"user",
						"getUserDetails"
					]
				}
			},
			"response": []
		},
		{
			"name": "updateUserDetails",
			"request": {
				"method": "PATCH",
				"header": [
					{
						"key": "Authorization",
						"value": "bearer eyJhbGciOiJIUzI1NiIsInR5cCI6IkpXVCJ9.eyJlbWFpbCI6InRzQG1haWwuaW4iLCJpYXQiOjE2MzA0ODE4MDV9.mgwvAe0--eqnTIhzq_dMato0BLjzZ5rPfSAW1B-zJvA",
						"type": "text"
					}
				],
				"body": {
					"mode": "raw",
					"raw": ""
				},
				"url": {
					"raw": "http://localhost:5000/user/updateUserDetails",
					"protocol": "http",
					"host": [
						"localhost"
					],
					"port": "5000",
					"path": [
						"user",
						"updateUserDetails"
					],
					"query": [
						{
							"key": "",
							"value": "",
							"disabled": true
						}
					]
				}
			},
			"response": []
		},
		{
			"name": "deleteUser",
			"request": {
				"method": "POST",
				"header": [
					{
						"key": "Authorization",
						"value": "bearer eyJhbGciOiJIUzI1NiIsInR5cCI6IkpXVCJ9.eyJlbWFpbCI6InRzQG1haWwuaW4iLCJpYXQiOjE2MzA0ODE2NzV9.k_17tdM_CJRGvKFZtTYMAHuVAiHaCgCtmJ1wny-GvqI",
						"type": "text"
					}
				],
				"body": {
					"mode": "raw",
					"raw": "",
					"options": {
						"raw": {
							"language": "json"
						}
					}
				},
				"url": {
					"raw": "http://localhost:5000/user/deleteUser",
					"protocol": "http",
					"host": [
						"localhost"
					],
					"port": "5000",
					"path": [
						"user",
						"deleteUser"
					]
				}
			},
			"response": []
		}
	]
}